[
	{
		"_id": "co-50",
		"_parentId": "course",
		"_type": "page",
		"_classes": "zh_cn",
		"height":"570",
		"title": "简介",
		"displayTitle": "简介",
		"pageBody": "了解精品栏广告可以如何帮助消费者在移动设备上发现、了解和购买商品。",
		"body": "了解精品栏广告可以如何帮助消费者在移动设备上发现、了解和购买商品。",
		"_graphic": {
			"src": "course/en/images/contentObjects/landing_01.png",
			"alt": "简介"
		},
		"linkText": "查看",
		"durationLabel": "时长：",
		"duration": "4 分钟",
		"_pageLevelProgress": {
			"_isEnabled": true
		}
	},
    {
		"_id": "co-100",
		"_parentId": "course",
		"_type": "page",
		"_classes": "zh_cn",
		"height":"570",
		"title": "精品栏广告的创意技巧",
		"displayTitle": "精品栏广告的创意技巧",
		"pageBody": "学习精品栏广告的创意技巧。",
		"body": "学习精品栏广告的创意技巧。",
		"_graphic": {
			"src": "course/en/images/contentObjects/landing_02.png",
			"alt": "商家使用精品栏的方式"
		},
		"linkText": "查看",
		"durationLabel": "时长：",
		"duration": "4 分钟",
		"_pageLevelProgress": {
			"_isEnabled": true
		}
	},
    {
		"_id": "co-150",
		"_parentId": "course",
		"_type": "page",
		"_classes": "zh_cn",
		"height":"570",
		"title": "利用商品目录创建广告的创意技巧",
		"displayTitle": "利用商品目录创建广告的创意技巧",
		"pageBody": "我们将介绍利用商品目录创建精品栏广告时需注意的一些创意技巧。",
		"body": "我们将介绍利用商品目录创建精品栏广告时需注意的一些创意技巧。",
		"_graphic": {
			"src": "course/en/images/contentObjects/landing_03.png",
			"alt": "商家使用精品栏的方式"
		},
		"linkText": "查看",
		"durationLabel": "时长：",
		"duration": "4 分钟",
		"_pageLevelProgress": {
			"_isEnabled": true
		}
	},
    {
		"_id": "co-200",
		"_parentId": "course",
		"_type": "page",
		"_classes": "zh_cn",
		"height":"570",
		"title": "不用商品目录创建广告的创意技巧",
		"displayTitle": "不用商品目录创建广告的创意技巧",
		"pageBody": "我们将介绍不用商品目录创建精品栏全屏广告时需注意的一些创意技巧。",
		"body": "我们将介绍不用商品目录创建精品栏全屏广告时需注意的一些创意技巧。",
		"_graphic": {
			"src": "course/en/images/contentObjects/landing_04.png",
			"alt": "商家使用精品栏的方式"
		},
		"linkText": "查看",
		"durationLabel": "时长：",
		"duration": "4 分钟",
		"_pageLevelProgress": {
			"_isEnabled": true
		}
	},
    {
		"_id": "co-250",
		"_parentId": "course",
		"_type": "page",
		"_classes": "zh_cn",
		"height":"570",
		"title": "设计精品栏广告",
		"displayTitle": "设计精品栏广告",
		"pageBody": "创建精品栏广告前，我们先来了解一些设计要求。",
		"body": "创建精品栏广告前，我们先来了解一些设计要求。",
		"_graphic": {
			"src": "course/en/images/contentObjects/landing_05.png",
			"alt": "商家使用精品栏的方式"
		},
		"linkText": "查看",
		"durationLabel": "时长：",
		"duration": "4 分钟",
		"_pageLevelProgress": {
			"_isEnabled": true
		}
	},
    {
		"_id": "co-300",
		"_parentId": "course",
		"_type": "page",
		"_classes": "zh_cn",
		"height":"570",
		"title": "利用商品目录创建精品栏广告",
		"displayTitle": "利用商品目录创建精品栏广告",
		"pageBody": "按照分步说明使用商品目录创建精品栏广告。",
		"body": "按照分步说明使用商品目录创建精品栏广告。",
		"_graphic": {
			"src": "course/en/images/contentObjects/landing_06.png",
			"alt": "商家使用精品栏的方式"
		},
		"linkText": "查看",
		"durationLabel": "时长：",
		"duration": "4 分钟",
		"_pageLevelProgress": {
			"_isEnabled": true
		}
	},
    {
		"_id": "co-350",
		"_parentId": "course",
		"_type": "page",
		"_classes": "zh_cn",
		"height":"570",
		"title": "不用商品目录创建精品栏广告",
		"displayTitle": "不用商品目录创建精品栏广告",
		"pageBody": "在没有商品目录的情况下，按照此章节的分步说明创建精品栏全屏广告。",
		"body": "在没有商品目录的情况下，按照此章节的分步说明创建精品栏全屏广告。",
		"_graphic": {
			"src": "course/en/images/contentObjects/landing_07.png",
			"alt": "商家使用精品栏的方式"
		},
		"linkText": "查看",
		"durationLabel": "时长：",
		"duration": "4 分钟",
		"_pageLevelProgress": {
			"_isEnabled": true
		}
	},
    {
		"_id": "co-400",
		"_parentId": "course",
		"_type": "page",
		"_classes": "zh_cn",
		"height":"570",
		"title": "知识测验",
		"displayTitle": "知识测验",
		"pageBody": "我们来快速回顾一下本课程所学的内容。",
		"body": "我们来快速回顾一下本课程所学的内容。",
		"_graphic": {
			"src": "course/en/images/contentObjects/landing_08.png",
			"alt": "商家使用精品栏的方式"
		},
		"linkText": "查看",
		"durationLabel": "时长：",
		"duration": "4 分钟",
		"_pageLevelProgress": {
			"_isEnabled": true
		}
	}
]
